Project 1: Wrangling, Exploration, Visualization
…
I performed an inner_join on the datasets because I wanted to preserve the data that was in the second data set, without dropping what was not in the first data set. I joined based on the zipcode for each area and eventually I figured it help me to visualize the distribution of prices in the area. After joining, the joined data set had 64 variables, and 43,141,748 objects. The crime dataset had 102446 rows and 27 columns, 26 of which were unique in the crime dataset and 47 variables 46 of which were unique and 15,318 objects in the “Austin Housing dataset”.

Wrangling

library(tidyverse)

merged_data_3 <- merged_data %>% distinct(zpid, .keep_all = TRUE)
merged_data_3 %>% arrange(desc(latestPrice))

## # A tibble: 15,126 x 73
##    `Incident Numbe… `Highest Offens… `Highest Offens… `Family Violenc…
##               <dbl> <chr>                       <dbl> <chr>           
##  1      20185003559 THEFT                         600 N               
##  2        201811457 DATING DISTURBA…             2400 N               
##  3       2018820828 VIOL CITY ORDIN…             3299 N               
##  4       2018820828 VIOL CITY ORDIN…             3299 N               
##  5        201811457 DATING DISTURBA…             2400 N               
##  6        201811457 DATING DISTURBA…             2400 N               
##  7        201811450 THEFT                         600 N               
##  8        201811457 DATING DISTURBA…             2400 N               
##  9        201811450 THEFT                         600 N               
## 10      20185003559 THEFT                         600 N               
## # … with 15,116 more rows, and 69 more variables: `Occurred Date Time` <chr>,
## #   `Occurred Date` <chr>, `Occurred Time` <dbl>, `Report Date Time` <chr>,
## #   `Report Date` <chr>, `Report Time` <dbl>, `Location Type` <chr>,
## #   Address <chr>, `Zip Code` <dbl>, `Council District` <dbl>, `APD
## #   Sector` <chr>, `APD District` <chr>, PRA <dbl>, `Census Tract` <dbl>,
## #   `Clearance Status` <chr>, `Clearance Date` <chr>, `UCR Category` <chr>,
## #   `Category Description` <chr>, `X-coordinate` <dbl>, `Y-coordinate` <dbl>,
## #   Latitude <dbl>, Longitude <dbl>, Location <chr>, zpid <dbl>, city <chr>,
## #   streetAddress <chr>, description <chr>, latitude <dbl>, longitude <dbl>,
…
merged_data_3 %>% group_by(`Zip Code`) %>% summarize(average_price = mean(latestPrice)) %>% 
    arrange(desc(average_price))

## # A tibble: 47 x 2
##    `Zip Code` average_price
##         <dbl>         <dbl>
##  1      78746      1422145.
##  2      78734      1390917.
##  3      78703      1192288.
##  4      78733      1061418.
##  5      78730      1020246.
##  6      78701       996475 
##  7      78735       977815.
##  8      78731       893546.
##  9      78704       839721.
## 10      78756       709739.
## # … with 37 more rows

Before performing analysis on the data set I needed it to be tidy. Using tidy verse I dropped the rows which were unnecessary and removed deuplicates. Above I found the household that has the greatest listing price, then summarized by the zipcode to find the average price of the houses in this area. To find the most expensive area in Austin I grouped by zipcode and then summarized the columns in terms of average house prices in descending order, I also had to create a variable that stores the cumulative sum of houses for each zipcode. The result of was that the West Lake Hills or the ‘78746’ zipcode was the most expensive area in Austin, which would make sense as it has some of the best views in Austin, the average price for a listing here using my dataset was $1,422,145.10.

crime_no_dup <- merged_data %>% distinct(Address, .keep_all = TRUE)

crime_no_dup %>% group_by(`Zip Code`, `Highest Offense Description`) %>% 
    summarize(count = n()) %>% mutate(cm_crime = max(cumsum(count))) %>% 
    arrange(desc(count))

## # A tibble: 3,837 x 4
## # Groups:   Zip Code [47]
##    `Zip Code` `Highest Offense Description` count cm_crime
##         <dbl> <chr>                         <int>    <int>
##  1      78745 BURGLARY OF VEHICLE             317     2640
##  2      78744 FAMILY DISTURBANCE              312     2231
##  3      78745 FAMILY DISTURBANCE              301     2640
##  4      78704 BURGLARY OF VEHICLE             292     2286
##  5      78702 BURGLARY OF VEHICLE             281     2216
##  6      78753 FAMILY DISTURBANCE              236     2169
##  7      78753 BURGLARY OF VEHICLE             209     2169
##  8      78704 THEFT                           197     2286
##  9      78758 BURGLARY OF VEHICLE             194     2186
## 10      78702 FAMILY DISTURBANCE              188     2216
## # … with 3,827 more rows
…
